Project 1: Wrangling, Exploration, Visualization
…
# untidy and then retidy
CO2 <- CO2 %>% pivot_longer(cols = 2:60, names_to = "Year", values_to = "Emissions", 
    values_drop_na = T)
CO2 <- CO2 %>% pivot_wider(names_from = "Year", values_from = "Emissions")

CO2 is tidied by listing years into one column, but untied back with years as columns because data from health are all collected in a single year.

Joining/Merging

# your joining code
data <- CO2 %>% inner_join(health, by = c(`Country Name` = "Country_Region"))
data %>% distinct(`Country Name`)

## # A tibble: 152 x 1
##    `Country Name`      
##    <chr>               
##  1 Afghanistan         
##  2 Angola              
##  3 Albania             
##  4 Andorra             
##  5 United Arab Emirates
##  6 Argentina           
##  7 Armenia             
##  8 Antigua and Barbuda 
##  9 Australia           
## 10 Austria             
## #  with 142 more rows
…
## # A tibble: 1 x 1
##   `n_distinct(Country_Region)`
##                          <int>
## 1                          180

There are 250 and 180 observations in CO2 and health respectively. There are 250 and 180 distinct IDs in CO2 and health respectively.

unique_CO2 <- CO2 %>% anti_join(health, by = c(`Country Name` = "Country_Region"))
unique_health <- health %>% anti_join(CO2, by = c(Country_Region = "Country Name"))

# IDs appeared in CO2 but not health
unique_CO2 %>% distinct(`Country Name`)

## # A tibble: 98 x 1
##    `Country Name`                
##    <chr>                         
##  1 Aruba                         
##  2 Africa Eastern and Southern   
##  3 Africa Western and Central    
##  4 Arab World                    
##  5 Bahamas, The                  
##  6 Bermuda                       
##  7 Brunei Darussalam             
##  8 Central Europe and the Baltics
##  9 Congo, Dem. Rep.              
## 10 Congo, Rep.                   
## #  with 88 more rows

# IDs appeared in health but not CO2
unique_health %>% distinct(Country_Region)

## # A tibble: 28 x 1
##    Country_Region     
##    <chr>              
##  1 Bahamas            
##  2 Brunei             
##  3 Burma              
##  4 Congo (Brazzaville)
##  5 Congo (Kinshasa)   
##  6 Czechia            
##  7 Diamond Princess   
##  8 Egypt              
##  9 Gambia             
## 10 Holy See           
## #  with 18 more rows
…
## # A tibble: 1 x 13
##   Country Emissions `Cardiovascular `Cancers (%)` `Diabetes, bloo
##     <int>     <int>            <int>         <int>            <int>
## 1       0         0                4             4                4
## #  with 8 more variables: `Respiratory diseases (%)` <int>, `Liver disease
## #   (%)` <int>, `Diarrhea & common infectious diseases (%)` <int>,
## #   `Musculoskeletal disorders (%)` <int>, `HIV/AIDS and tuberculosis
## #   (%)` <int>, `Malaria & neglected tropical diseases (%)` <int>, `Nutritional
## #   deficiencies (%)` <int>, `Emissions>50` <int>

better_data %>% transmute(str_replace(`Emissions>50`, "^.", tolower))

## # A tibble: 152 x 1
##    `str_replace(\`Emissions>50\`, "^.", tolower)`
##    <chr>                                         
##  1 false                                         
##  2 false                                         
##  3 false                                         
##  4 true                                          
##  5 true                                          
##  6 true                                          
##  7 false                                         
##  8 true                                          
##  9 true                                          
## 10 true                                          
## #  with 142 more rows

better_data %>% group_by(Country) %>% summarize(n())

## # A tibble: 152 x 2
##    Country             `n()`
##    <chr>               <int>
##  1 Afghanistan             1
##  2 Albania                 1
##  3 Algeria                 1
##  4 Andorra                 1
##  5 Angola                  1
##  6 Antigua and Barbuda     1
##  7 Argentina               1
##  8 Armenia                 1
##  9 Australia               1
## 10 Austria                 1
## #  with 142 more rows

better_data %>% group_by(`Emissions>50`) %>% summarize(n())

## # A tibble: 2 x 2
##   `Emissions>50` `n()`
##   <chr>          <int>
## 1 False             76
## 2 True              76

better_data %>% group_by(Country, `Emissions>50`) %>% summarize_all(n_distinct, 
    na.rm = T)

## # A tibble: 152 x 13
## # Groups:   Country [152]
##    Country `Emissions>50` Emissions `Cardiovascular `Cancers (%)`
##    <chr>   <chr>              <int>            <int>         <int>
##  1 Afghan False                  1                1             1
##  2 Albania False                  1                1             1
##  3 Algeria True                   1                1             1
##  4 Andorra True                   1                1             1
##  5 Angola  False                  1                1             1
##  6 Antigu True                   1                1             1
##  7 Argent True                   1                1             1
##  8 Armenia False                  1                1             1
##  9 Austra True                   1                1             1
## 10 Austria True                   1                1             1
## #  with 142 more rows, and 8 more variables: `Diabetes, blood, & endocrine
## #   diseases (%)` <int>, `Respiratory diseases (%)` <int>, `Liver disease
## #   (%)` <int>, `Diarrhea & common infectious diseases (%)` <int>,
## #   `Musculoskeletal disorders (%)` <int>, `HIV/AIDS and tuberculosis
## #   (%)` <int>, `Malaria & neglected tropical diseases (%)` <int>, `Nutritional
## #   deficiencies (%)` <int>

better_data %>% arrange(desc(Emissions)) %>% filter(`Cardiovascular diseases (%)` > 
    median(`Cardiovascular diseases (%)`, na.rm = T))

## # A tibble: 74 x 13
##    Country Emissions `Cardiovascular `Cancers (%)` `Diabetes, bloo
##    <chr>       <dbl>            <dbl>         <dbl>            <dbl>
##  1 Canada      15.5              13.7         18.3              6.38
##  2 Luxemb     15.3              14.2         17.7              5.32
##  3 Oman        15.2              13.6          4.73             9.95
##  4 Trinid     12.8              18.3         10.2             16.9 
##  5 Estonia     12.1              25.4         15.8              4.96
##  6 Kazakh     12.1              25.6          8.97             4.10
##  7 Libya        8.83             16.9          8.71             8.45
##  8 Japan        8.74             14.8         19.2              6.47
##  9 Germany      8.56             19.0         18.8              6.19
## 10 Singap      8.40             14.1         13.3              6.55
## #  with 64 more rows, and 8 more variables: `Respiratory diseases (%)` <dbl>,
## #   `Liver disease (%)` <dbl>, `Diarrhea & common infectious diseases
## #   (%)` <dbl>, `Musculoskeletal disorders (%)` <dbl>, `HIV/AIDS and
## #   tuberculosis (%)` <dbl>, `Malaria & neglected tropical diseases (%)` <dbl>,
## #   `Nutritional deficiencies (%)` <dbl>, `Emissions>50` <chr>
…
